<?xml version="1.0" encoding="utf-8"?>
<!-- Generator: Adobe Illustrator 21.1.0, SVG Export Plug-In . SVG Version: 6.00 Build 0)  -->
<svg version="1.1" id="Layer_1" xmlns:sketch="http://www.bohemiancoding.com/sketch/ns"
	 xmlns="http://www.w3.org/2000/svg" xmlns:xlink="http://www.w3.org/1999/xlink" x="0px" y="0px" viewBox="0 0 78.4 21.6"
	 style="enable-background:new 0 0 78.4 21.6;" xml:space="preserve">
<style type="text/css">
	.st0{fill:#0088C5;}
</style>
<title>mumbi.</title>
<desc>Created with Sketch.</desc>
<g>
	<path class="st0" d="M28.1,0.6c0.3-0.2,0.6-0.3,1-0.3c0.5,0,0.9,0.1,1.2,0.4c0.3,0.3,0.5,0.7,0.5,1.2c0,0.2,0,0.4-0.1,0.8
		l-6.4,17.6c-0.2,0.4-0.4,0.7-0.8,0.9c-0.4,0.2-0.8,0.3-1.2,0.3c-0.4,0-0.8-0.1-1.2-0.3c-0.4-0.2-0.6-0.5-0.8-0.9l-4.9-14l-5,14
		c-0.2,0.4-0.4,0.7-0.8,0.9c-0.4,0.2-0.8,0.3-1.2,0.3s-0.8-0.1-1.2-0.3c-0.4-0.2-0.6-0.5-0.8-0.9L0.1,2.7C0,2.4,0,2.1,0,1.9
		C0,1.4,0.2,1,0.5,0.7c0.4-0.3,0.8-0.4,1.3-0.4c0.4,0,0.8,0.1,1.1,0.3s0.5,0.5,0.7,0.9l5,14.5l5.2-14.4c0.1-0.4,0.4-0.7,0.7-0.9
		s0.7-0.3,1-0.3c0.4,0,0.7,0.1,1.1,0.3c0.3,0.2,0.6,0.5,0.7,1l5,14.5l5.1-14.7C27.6,1.1,27.8,0.8,28.1,0.6z"/>
	<path class="st0" d="M34,3.4C33.6,3,33.4,2.5,33.4,2s0.2-1.1,0.6-1.4C34.4,0.2,34.9,0,35.6,0c0.7,0,1.2,0.2,1.6,0.5
		c0.4,0.4,0.6,0.8,0.6,1.4S37.6,3,37.2,3.4c-0.4,0.4-0.9,0.5-1.6,0.5C34.9,3.9,34.4,3.8,34,3.4z M34.3,21.1
		c-0.3-0.3-0.5-0.7-0.5-1.3V8.3c0-0.6,0.2-1,0.5-1.3s0.8-0.4,1.3-0.4s1,0.1,1.3,0.4s0.5,0.7,0.5,1.3v11.4c0,0.6-0.2,1-0.5,1.3
		c-0.4,0.3-0.8,0.5-1.3,0.5S34.6,21.4,34.3,21.1z"/>
	<path class="st0" d="M52.8,7.4c1,0.6,1.7,1.5,2.3,2.6c0.5,1.1,0.8,2.4,0.8,3.9s-0.3,2.8-0.8,4s-1.3,2-2.3,2.7
		c-1,0.6-2.1,0.9-3.3,0.9c-1,0-2-0.2-2.8-0.7s-1.4-1.1-1.9-1.9v0.7c0,0.5-0.2,1-0.5,1.3s-0.8,0.5-1.3,0.5c-0.6,0-1-0.2-1.3-0.5
		s-0.5-0.7-0.5-1.3V2c0-0.5,0.2-0.9,0.5-1.2s0.7-0.5,1.3-0.5s1,0.1,1.3,0.4s0.5,0.7,0.5,1.2v7c0.4-0.8,1.1-1.4,1.9-1.8
		c0.8-0.4,1.7-0.6,2.8-0.6C50.7,6.5,51.8,6.8,52.8,7.4z M51.2,17.5c0.7-0.8,1-2,1-3.5s-0.3-2.6-1-3.4c-0.6-0.8-1.6-1.2-2.7-1.2
		s-2.1,0.4-2.7,1.2c-0.6,0.8-1,2-1,3.5s0.3,2.7,1,3.5c0.6,0.8,1.6,1.2,2.7,1.2C49.6,18.7,50.5,18.3,51.2,17.5z"/>
	<path class="st0" d="M69.4,8c1,1,1.5,2.5,1.5,4.5v7.2c0,0.5-0.2,1-0.5,1.3s-0.8,0.5-1.3,0.5s-0.9-0.2-1.3-0.5s-0.5-0.7-0.5-1.2
		v-0.7c-0.3,0.8-0.9,1.4-1.6,1.8s-1.6,0.7-2.5,0.7c-1,0-1.8-0.2-2.6-0.6s-1.4-0.9-1.9-1.6S58,17.9,58,17.1c0-1.1,0.3-1.9,0.8-2.5
		s1.4-1.1,2.7-1.3c1.2-0.3,2.9-0.4,5.1-0.4h0.7v-0.7c0-1-0.2-1.7-0.6-2.1c-0.4-0.4-1.1-0.7-2-0.7c-0.6,0-1.2,0.1-1.7,0.3
		c-0.6,0.2-1.3,0.4-2.1,0.7c-0.5,0.3-0.9,0.4-1.1,0.4c-0.4,0-0.6-0.1-0.9-0.4c-0.2-0.3-0.3-0.6-0.3-1c0-0.3,0.1-0.6,0.3-0.9
		c0.2-0.2,0.4-0.5,0.8-0.7c0.7-0.4,1.5-0.7,2.5-0.9c1-0.2,1.9-0.3,2.8-0.3C66.9,6.5,68.4,7,69.4,8z M66.4,17.9
		c0.6-0.7,0.9-1.5,0.9-2.6v-0.6h-0.5c-1.3,0-2.4,0.1-3.1,0.2c-0.7,0.1-1.3,0.3-1.6,0.6s-0.5,0.7-0.5,1.2c0,0.6,0.2,1.2,0.7,1.6
		c0.4,0.4,1,0.6,1.6,0.6C64.9,18.9,65.7,18.6,66.4,17.9z"/>
	<path class="st0" d="M74.6,3.4C74.2,3,74,2.5,74,2s0.2-1.1,0.6-1.4C75,0.2,75.5,0,76.2,0s1.2,0.2,1.6,0.5c0.4,0.4,0.6,0.8,0.6,1.4
		S78.2,3,77.8,3.4c-0.4,0.4-0.9,0.5-1.6,0.5S75,3.8,74.6,3.4z M74.8,21.1c-0.3-0.3-0.5-0.7-0.5-1.3V8.3c0-0.6,0.2-1,0.5-1.3
		s0.8-0.4,1.3-0.4s1,0.1,1.3,0.4C77.9,7.3,78,7.8,78,8.3v11.4c0,0.6-0.2,1-0.5,1.3c-0.4,0.3-0.8,0.5-1.3,0.5S75.2,21.4,74.8,21.1z"
		/>
</g>
</svg>
